{
    "value": [
        "qref:v1:00973bd4:/home/x/.cache/coursier/v1/https/repo1.maven.org/maven2/org/scala-lang/scala3-library_3/3.4.0/scala3-library_3-3.4.0.jar",
        "qref:v1:0004e741:/home/x/.cache/coursier/v1/https/repo1.maven.org/maven2/org/scala-lang/scala-library/2.13.12/scala-library-2.13.12.jar"
    ],
    "valueHash": -1937143849,
    "inputsHash": -1722325308
}