{
    "value": {
        "analysisFile": "/mnt/xxx_source/Languages_ok/scalatut/a/95_mill/out/foo/compile.dest/zinc",
        "classes": "ref:v0:22962682:/mnt/xxx_source/Languages_ok/scalatut/a/95_mill/out/foo/compile.dest/classes"
    },
    "valueHash": -1615401773,
    "inputsHash": -1998187744
}