{
    "value": [
        {
            "dep": {
                "module": {
                    "organization": {
                        "value": "org.scala-lang"
                    },
                    "name": {
                        "value": "scala3-library_3"
                    },
                    "attributes": {}
                },
                "version": "3.3.4",
                "configuration": {
                    "value": "default(compile)"
                },
                "minimizedExclusions": {
                    "data": "coursier.core.MinimizedExclusions.ExcludeNone"
                },
                "publication": {
                    "name": "",
                    "type": {
                        "value": ""
                    },
                    "ext": {
                        "value": ""
                    },
                    "classifier": {
                        "value": ""
                    }
                },
                "optional": false,
                "transitive": true
            },
            "force": true
        }
    ],
    "valueHash": -1618096383,
    "inputsHash": -1491605318
}