{
    "value": {
        "analysisFile": "/mnt/xxx_source/Languages_ok/scalatut/a/95_mill/out/mill-build/compile.dest/zinc",
        "classes": "ref:v0:12d3e9dd:/mnt/xxx_source/Languages_ok/scalatut/a/95_mill/out/mill-build/compile.dest/classes"
    },
    "valueHash": -236431594,
    "inputsHash": -1609501998
}