{
    "value": [
        "qref:v1:647bb4c6:/home/x/.cache/coursier/v1/https/repo1.maven.org/maven2/com/lihaoyi/mill-moduledefs_2.13/0.10.9/mill-moduledefs_2.13-0.10.9.jar",
        "qref:v1:472d5ac4:/home/x/.cache/coursier/v1/https/repo1.maven.org/maven2/org/scala-lang/scala-library/2.13.14/scala-library-2.13.14.jar",
        "ref:v0:c984eca8:/mnt/xxx_source/Languages_ok/scalatut/a/95_mill/mill-build/compile-resources",
        "qref:v0:9bd6ebed:/home/x/.local/share/coursier/bin/mill",
        "qref:v0:cd4377bf:/home/x/.cache/coursier/v1/https/repo1.maven.org/maven2/com/lihaoyi/mill-dev_2.13/0.11.13/mill-dev_2.13-0.11.13.jar",
        "qref:v0:472d5ac4:/home/x/.cache/coursier/v1/https/repo1.maven.org/maven2/org/scala-lang/scala-library/2.13.14/scala-library-2.13.14.jar",
        "qref:v0:647bb4c6:/home/x/.cache/coursier/v1/https/repo1.maven.org/maven2/com/lihaoyi/mill-moduledefs_2.13/0.10.9/mill-moduledefs_2.13-0.10.9.jar",
        "qref:v0:66f763b8:/home/x/.cache/coursier/v1/https/repo1.maven.org/maven2/com/lihaoyi/mill-runner_2.13/0.11.13/mill-runner_2.13-0.11.13.jar",
        "qref:v0:ca3f801f:/home/x/.cache/coursier/v1/https/repo1.maven.org/maven2/com/lihaoyi/mill-idea_2.13/0.11.13/mill-idea_2.13-0.11.13.jar",
        "qref:v0:ec6c4a5c:/home/x/.cache/coursier/v1/https/repo1.maven.org/maven2/org/scala-lang/scala-compiler/2.13.14/scala-compiler-2.13.14.jar",
        "qref:v0:c69a5577:/home/x/.cache/coursier/v1/https/repo1.maven.org/maven2/com/lihaoyi/sourcecode_2.13/0.4.0/sourcecode_2.13-0.4.0.jar",
        "qref:v0:13ce2a28:/home/x/.cache/coursier/v1/https/repo1.maven.org/maven2/com/lihaoyi/mill-scalalib_2.13/0.11.13/mill-scalalib_2.13-0.11.13.jar",
        "qref:v0:77346fe9:/home/x/.cache/coursier/v1/https/repo1.maven.org/maven2/com/lihaoyi/mill-scalajslib_2.13/0.11.13/mill-scalajslib_2.13-0.11.13.jar",
        "qref:v0:8bddf830:/home/x/.cache/coursier/v1/https/repo1.maven.org/maven2/com/lihaoyi/mill-scalanativelib_2.13/0.11.13/mill-scalanativelib_2.13-0.11.13.jar",
        "qref:v0:40b59983:/home/x/.cache/coursier/v1/https/repo1.maven.org/maven2/com/lihaoyi/mill-bsp_2.13/0.11.13/mill-bsp_2.13-0.11.13.jar",
        "qref:v0:1d335adb:/home/x/.cache/coursier/v1/https/repo1.maven.org/maven2/com/lihaoyi/mill-runner-linenumbers_2.13/0.11.13/mill-runner-linenumbers_2.13-0.11.13.jar",
        "qref:v0:a17b4875:/home/x/.cache/coursier/v1/https/repo1.maven.org/maven2/com/lihaoyi/mill-main-codesig_2.13/0.11.13/mill-main-codesig_2.13-0.11.13.jar",
        "qref:v0:d0c019f0:/home/x/.cache/coursier/v1/https/repo1.maven.org/maven2/org/scala-lang/scala-reflect/2.13.14/scala-reflect-2.13.14.jar",
        "qref:v0:c3fede0e:/home/x/.cache/coursier/v1/https/repo1.maven.org/maven2/io/github/java-diff-utils/java-diff-utils/4.12/java-diff-utils-4.12.jar",
        "qref:v0:756f448c:/home/x/.cache/coursier/v1/https/repo1.maven.org/maven2/org/jline/jline/3.26.3/jline-3.26.3.jar",
        "qref:v0:93dd03ee:/home/x/.cache/coursier/v1/https/repo1.maven.org/maven2/net/java/dev/jna/jna/5.14.0/jna-5.14.0.jar",
        "qref:v0:b577fc7b:/home/x/.cache/coursier/v1/https/repo1.maven.org/maven2/org/scalameta/scalafmt-dynamic_2.13/3.7.15/scalafmt-dynamic_2.13-3.7.15.jar",
        "qref:v0:0ad63504:/home/x/.cache/coursier/v1/https/repo1.maven.org/maven2/org/scala-lang/modules/scala-xml_2.13/2.3.0/scala-xml_2.13-2.3.0.jar",
        "qref:v0:c9debd5c:/home/x/.cache/coursier/v1/https/repo1.maven.org/maven2/com/lihaoyi/mill-main_2.13/0.11.13/mill-main_2.13-0.11.13.jar",
        "qref:v0:b5b363da:/home/x/.cache/coursier/v1/https/repo1.maven.org/maven2/com/lihaoyi/mill-scalalib-api_2.13/0.11.13/mill-scalalib-api_2.13-0.11.13.jar",
        "qref:v0:53d45b90:/home/x/.cache/coursier/v1/https/repo1.maven.org/maven2/com/lihaoyi/mill-testrunner_2.13/0.11.13/mill-testrunner_2.13-0.11.13.jar",
        "qref:v0:10b6aa8c:/home/x/.cache/coursier/v1/https/repo1.maven.org/maven2/com/lihaoyi/mill-scalajslib-worker-api_2.13/0.11.13/mill-scalajslib-worker-api_2.13-0.11.13.jar",
        "qref:v0:f7631b63:/home/x/.cache/coursier/v1/https/repo1.maven.org/maven2/com/lihaoyi/mill-scalanativelib-worker-api_2.13/0.11.13/mill-scalanativelib-worker-api_2.13-0.11.13.jar",
        "qref:v0:bb4f2c5b:/home/x/.cache/coursier/v1/https/repo1.maven.org/maven2/org/ow2/asm/asm-tree/9.7.1/asm-tree-9.7.1.jar",
        "qref:v0:6493eb9a:/home/x/.cache/coursier/v1/https/repo1.maven.org/maven2/com/lihaoyi/os-lib_2.13/0.10.3/os-lib_2.13-0.10.3.jar",
        "qref:v0:4996cefa:/home/x/.cache/coursier/v1/https/repo1.maven.org/maven2/com/lihaoyi/pprint_2.13/0.9.0/pprint_2.13-0.9.0.jar",
        "qref:v0:f2e46080:/home/x/.cache/coursier/v1/https/repo1.maven.org/maven2/com/lihaoyi/mill-main-util_2.13/0.11.13/mill-main-util_2.13-0.11.13.jar",
        "qref:v0:b8781155:/home/x/.cache/coursier/v1/https/repo1.maven.org/maven2/org/scalameta/scalafmt-interfaces/3.7.15/scalafmt-interfaces-3.7.15.jar",
        "qref:v0:3b39aaef:/home/x/.cache/coursier/v1/https/repo1.maven.org/maven2/io/get-coursier/interface/1.0.19/interface-1.0.19.jar",
        "qref:v0:98923059:/home/x/.cache/coursier/v1/https/repo1.maven.org/maven2/com/typesafe/config/1.4.2/config-1.4.2.jar",
        "qref:v0:0d23d9b0:/home/x/.cache/coursier/v1/https/repo1.maven.org/maven2/io/github/alexarchambault/windows-ansi/windows-ansi/0.0.5/windows-ansi-0.0.5.jar",
        "qref:v0:4cd40d97:/home/x/.cache/coursier/v1/https/repo1.maven.org/maven2/com/lihaoyi/mainargs_2.13/0.7.1/mainargs_2.13-0.7.1.jar",
        "qref:v0:662217b3:/home/x/.cache/coursier/v1/https/repo1.maven.org/maven2/com/lihaoyi/requests_2.13/0.8.3/requests_2.13-0.8.3.jar",
        "qref:v0:27e5e50c:/home/x/.cache/coursier/v1/https/repo1.maven.org/maven2/com/lihaoyi/mill-main-eval_2.13/0.11.13/mill-main-eval_2.13-0.11.13.jar",
        "qref:v0:99efb98f:/home/x/.cache/coursier/v1/https/repo1.maven.org/maven2/com/lihaoyi/mill-main-resolve_2.13/0.11.13/mill-main-resolve_2.13-0.11.13.jar",
        "qref:v0:6fd7104d:/home/x/.cache/coursier/v1/https/repo1.maven.org/maven2/com/lihaoyi/mill-main-client/0.11.13/mill-main-client-0.11.13.jar",
        "qref:v0:c5d4137d:/home/x/.cache/coursier/v1/https/repo1.maven.org/maven2/com/lihaoyi/mill-main-api_2.13/0.11.13/mill-main-api_2.13-0.11.13.jar",
        "qref:v0:edd8fe4c:/home/x/.cache/coursier/v1/https/repo1.maven.org/maven2/com/lihaoyi/mill-testrunner-entrypoint/0.11.13/mill-testrunner-entrypoint-0.11.13.jar",
        "qref:v0:9ca2e086:/home/x/.cache/coursier/v1/https/repo1.maven.org/maven2/org/scala-sbt/test-interface/1.0/test-interface-1.0.jar",
        "qref:v0:7cb10fff:/home/x/.cache/coursier/v1/https/repo1.maven.org/maven2/org/ow2/asm/asm/9.7.1/asm-9.7.1.jar",
        "qref:v0:1a6ac30d:/home/x/.cache/coursier/v1/https/repo1.maven.org/maven2/com/lihaoyi/geny_2.13/1.1.1/geny_2.13-1.1.1.jar",
        "qref:v0:9c205598:/home/x/.cache/coursier/v1/https/repo1.maven.org/maven2/com/lihaoyi/fansi_2.13/0.5.0/fansi_2.13-0.5.0.jar",
        "qref:v0:1776f0d3:/home/x/.cache/coursier/v1/https/repo1.maven.org/maven2/io/get-coursier/coursier_2.13/2.1.10/coursier_2.13-2.1.10.jar",
        "qref:v0:9a88caca:/home/x/.cache/coursier/v1/https/repo1.maven.org/maven2/org/slf4j/slf4j-api/1.7.36/slf4j-api-1.7.36.jar",
        "qref:v0:6cc36184:/home/x/.cache/coursier/v1/https/repo1.maven.org/maven2/org/fusesource/jansi/jansi/1.18/jansi-1.18.jar",
        "qref:v0:d297be3b:/home/x/.cache/coursier/v1/https/repo1.maven.org/maven2/org/scala-lang/modules/scala-collection-compat_2.13/2.12.0/scala-collection-compat_2.13-2.12.0.jar",
        "qref:v0:2ecb3099:/home/x/.cache/coursier/v1/https/repo1.maven.org/maven2/com/lihaoyi/mill-main-define_2.13/0.11.13/mill-main-define_2.13-0.11.13.jar",
        "qref:v0:c96b9ea6:/home/x/.cache/coursier/v1/https/repo1.maven.org/maven2/com/lihaoyi/upickle_2.13/3.3.1/upickle_2.13-3.3.1.jar",
        "qref:v0:001f91e3:/home/x/.cache/coursier/v1/https/repo1.maven.org/maven2/com/github/plokhotnyuk/jsoniter-scala/jsoniter-scala-core_2.13/2.13.5.2/jsoniter-scala-core_2.13-2.13.5.2.jar",
        "qref:v0:ffe0f927:/home/x/.cache/coursier/v1/https/repo1.maven.org/maven2/io/get-coursier/coursier-core_2.13/2.1.10/coursier-core_2.13-2.1.10.jar",
        "qref:v0:fcf3c0a7:/home/x/.cache/coursier/v1/https/repo1.maven.org/maven2/io/get-coursier/coursier-cache_2.13/2.1.10/coursier-cache_2.13-2.1.10.jar",
        "qref:v0:ee85ec4d:/home/x/.cache/coursier/v1/https/repo1.maven.org/maven2/io/get-coursier/coursier-proxy-setup/2.1.10/coursier-proxy-setup-2.1.10.jar",
        "qref:v0:f2034f12:/home/x/.cache/coursier/v1/https/repo1.maven.org/maven2/net/java/dev/jna/jna-platform/5.14.0/jna-platform-5.14.0.jar",
        "qref:v0:eb6bbf17:/home/x/.cache/coursier/v1/https/repo1.maven.org/maven2/com/eed3si9n/jarjarabrams/jarjar-abrams-core_2.13/1.14.0/jarjar-abrams-core_2.13-1.14.0.jar",
        "qref:v0:837db501:/home/x/.cache/coursier/v1/https/repo1.maven.org/maven2/com/lihaoyi/scalaparse_2.13/3.1.1/scalaparse_2.13-3.1.1.jar",
        "qref:v0:76c404d5:/home/x/.cache/coursier/v1/https/repo1.maven.org/maven2/com/kohlschutter/junixsocket/junixsocket-native-common/2.10.0/junixsocket-native-common-2.10.0.jar",
        "qref:v0:4f68fe1c:/home/x/.cache/coursier/v1/https/repo1.maven.org/maven2/com/kohlschutter/junixsocket/junixsocket-common/2.10.0/junixsocket-common-2.10.0.jar",
        "qref:v0:ecb690c0:/home/x/.cache/coursier/v1/https/repo1.maven.org/maven2/com/lihaoyi/ujson_2.13/3.3.1/ujson_2.13-3.3.1.jar",
        "qref:v0:14082700:/home/x/.cache/coursier/v1/https/repo1.maven.org/maven2/com/lihaoyi/upack_2.13/3.3.1/upack_2.13-3.3.1.jar",
        "qref:v0:b2044931:/home/x/.cache/coursier/v1/https/repo1.maven.org/maven2/com/lihaoyi/upickle-implicits_2.13/3.3.1/upickle-implicits_2.13-3.3.1.jar",
        "qref:v0:64f5d927:/home/x/.cache/coursier/v1/https/repo1.maven.org/maven2/io/github/alexarchambault/concurrent-reference-hash-map/1.1.0/concurrent-reference-hash-map-1.1.0.jar",
        "qref:v0:dd43f3cf:/home/x/.cache/coursier/v1/https/repo1.maven.org/maven2/io/get-coursier/coursier-util_2.13/2.1.10/coursier-util_2.13-2.1.10.jar",
        "qref:v0:b1167082:/home/x/.cache/coursier/v1/https/repo1.maven.org/maven2/io/get-coursier/jniutils/windows-jni-utils/0.3.3/windows-jni-utils-0.3.3.jar",
        "qref:v0:c7f401b0:/home/x/.cache/coursier/v1/https/repo1.maven.org/maven2/org/codehaus/plexus/plexus-archiver/4.9.0/plexus-archiver-4.9.0.jar",
        "qref:v0:6e9c9c12:/home/x/.cache/coursier/v1/https/repo1.maven.org/maven2/org/codehaus/plexus/plexus-container-default/2.1.1/plexus-container-default-2.1.1.jar",
        "qref:v0:87dc3814:/home/x/.cache/coursier/v1/https/repo1.maven.org/maven2/org/virtuslab/scala-cli/config_2.13/0.2.1/config_2.13-0.2.1.jar",
        "qref:v0:ed12b67b:/home/x/.cache/coursier/v1/https/repo1.maven.org/maven2/com/eed3si9n/jarjar/jarjar/1.14.0/jarjar-1.14.0.jar",
        "qref:v0:2b8fa2ec:/home/x/.cache/coursier/v1/https/repo1.maven.org/maven2/com/lihaoyi/fastparse_2.13/3.1.1/fastparse_2.13-3.1.1.jar",
        "qref:v0:9002d91b:/home/x/.cache/coursier/v1/https/repo1.maven.org/maven2/com/lihaoyi/upickle-core_2.13/3.3.1/upickle-core_2.13-3.3.1.jar",
        "qref:v0:bdf40ecc:/home/x/.cache/coursier/v1/https/repo1.maven.org/maven2/javax/inject/javax.inject/1/javax.inject-1.jar",
        "qref:v0:271fa741:/home/x/.cache/coursier/v1/https/repo1.maven.org/maven2/org/codehaus/plexus/plexus-utils/4.0.0/plexus-utils-4.0.0.jar",
        "qref:v0:81056b20:/home/x/.cache/coursier/v1/https/repo1.maven.org/maven2/org/codehaus/plexus/plexus-io/3.4.1/plexus-io-3.4.1.jar",
        "qref:v0:5eefc294:/home/x/.cache/coursier/v1/https/repo1.maven.org/maven2/commons-io/commons-io/2.15.0/commons-io-2.15.0.jar",
        "qref:v0:0e71c500:/home/x/.cache/coursier/v1/https/repo1.maven.org/maven2/org/apache/commons/commons-compress/1.24.0/commons-compress-1.24.0.jar",
        "qref:v0:77a9e1af:/home/x/.cache/coursier/v1/https/repo1.maven.org/maven2/org/iq80/snappy/snappy/0.4/snappy-0.4.jar",
        "qref:v0:e87cf8cf:/home/x/.cache/coursier/v1/https/repo1.maven.org/maven2/org/tukaani/xz/1.9/xz-1.9.jar",
        "qref:v0:24a4f117:/home/x/.cache/coursier/v1/https/repo1.maven.org/maven2/com/github/luben/zstd-jni/1.5.5-10/zstd-jni-1.5.5-10.jar",
        "qref:v0:307e573e:/home/x/.cache/coursier/v1/https/repo1.maven.org/maven2/org/codehaus/plexus/plexus-classworlds/2.6.0/plexus-classworlds-2.6.0.jar",
        "qref:v0:02881b91:/home/x/.cache/coursier/v1/https/repo1.maven.org/maven2/org/apache/xbean/xbean-reflect/3.7/xbean-reflect-3.7.jar",
        "qref:v0:5976fbe9:/home/x/.cache/coursier/v1/https/repo1.maven.org/maven2/org/ow2/asm/asm-commons/9.6/asm-commons-9.6.jar",
        "qref:v0:17a3e014:/home/x/.cache/coursier/v1/https/repo1.maven.org/maven2/org/apache/commons/commons-lang3/3.8.1/commons-lang3-3.8.1.jar",
        "qref:v1:1d335adb:/home/x/.cache/coursier/v1/https/repo1.maven.org/maven2/com/lihaoyi/mill-runner-linenumbers_2.13/0.11.13/mill-runner-linenumbers_2.13-0.11.13.jar",
        "qref:v1:ec6c4a5c:/home/x/.cache/coursier/v1/https/repo1.maven.org/maven2/org/scala-lang/scala-compiler/2.13.14/scala-compiler-2.13.14.jar",
        "qref:v1:472d5ac4:/home/x/.cache/coursier/v1/https/repo1.maven.org/maven2/org/scala-lang/scala-library/2.13.14/scala-library-2.13.14.jar",
        "qref:v1:647bb4c6:/home/x/.cache/coursier/v1/https/repo1.maven.org/maven2/com/lihaoyi/mill-moduledefs_2.13/0.10.9/mill-moduledefs_2.13-0.10.9.jar",
        "qref:v1:d0c019f0:/home/x/.cache/coursier/v1/https/repo1.maven.org/maven2/org/scala-lang/scala-reflect/2.13.14/scala-reflect-2.13.14.jar",
        "qref:v1:c3fede0e:/home/x/.cache/coursier/v1/https/repo1.maven.org/maven2/io/github/java-diff-utils/java-diff-utils/4.12/java-diff-utils-4.12.jar",
        "qref:v1:aa1d7c9b:/home/x/.cache/coursier/v1/https/repo1.maven.org/maven2/org/jline/jline/3.25.1/jline-3.25.1.jar",
        "qref:v1:93dd03ee:/home/x/.cache/coursier/v1/https/repo1.maven.org/maven2/net/java/dev/jna/jna/5.14.0/jna-5.14.0.jar",
        "qref:v1:589290b0:/home/x/.cache/coursier/v1/https/repo1.maven.org/maven2/com/lihaoyi/sourcecode_2.13/0.3.0/sourcecode_2.13-0.3.0.jar",
        "ref:v0:12d3e9dd:/mnt/xxx_source/Languages_ok/scalatut/a/95_mill/out/mill-build/compile.dest/classes"
    ],
    "valueHash": 1999169025,
    "inputsHash": -871450240
}