{
    "value": [
        "qref:v1:ff0b0d72:/home/x/.cache/coursier/v1/https/repo1.maven.org/maven2/com/lihaoyi/mill-scalalib-worker_2.13/0.11.12/mill-scalalib-worker_2.13-0.11.12.jar",
        "qref:v1:270de1e0:/home/x/.cache/coursier/v1/https/repo1.maven.org/maven2/org/scala-sbt/zinc_2.13/1.10.1/zinc_2.13-1.10.1.jar",
        "qref:v1:8e5758f3:/home/x/.cache/coursier/v1/https/repo1.maven.org/maven2/org/apache/logging/log4j/log4j-core/2.23.1/log4j-core-2.23.1.jar",
        "qref:v1:293e01e0:/home/x/.cache/coursier/v1/https/repo1.maven.org/maven2/org/scala-lang/scalap/2.13.14/scalap-2.13.14.jar",
        "qref:v1:472d5ac4:/home/x/.cache/coursier/v1/https/repo1.maven.org/maven2/org/scala-lang/scala-library/2.13.14/scala-library-2.13.14.jar",
        "qref:v1:647bb4c6:/home/x/.cache/coursier/v1/https/repo1.maven.org/maven2/com/lihaoyi/mill-moduledefs_2.13/0.10.9/mill-moduledefs_2.13-0.10.9.jar",
        "qref:v1:51d391ab:/home/x/.cache/coursier/v1/https/repo1.maven.org/maven2/com/lihaoyi/mill-scalalib-api_2.13/0.11.12/mill-scalalib-api_2.13-0.11.12.jar",
        "qref:v1:7acfd3fe:/home/x/.cache/coursier/v1/https/repo1.maven.org/maven2/org/scala-sbt/zinc-core_2.13/1.10.1/zinc-core_2.13-1.10.1.jar",
        "qref:v1:cffd9c6e:/home/x/.cache/coursier/v1/https/repo1.maven.org/maven2/org/scala-sbt/zinc-persist_2.13/1.10.1/zinc-persist_2.13-1.10.1.jar",
        "qref:v1:6319c4a8:/home/x/.cache/coursier/v1/https/repo1.maven.org/maven2/org/scala-sbt/zinc-compile-core_2.13/1.10.1/zinc-compile-core_2.13-1.10.1.jar",
        "qref:v1:937bd43a:/home/x/.cache/coursier/v1/https/repo1.maven.org/maven2/org/scala-sbt/zinc-classfile_2.13/1.10.1/zinc-classfile_2.13-1.10.1.jar",
        "qref:v1:483c7327:/home/x/.cache/coursier/v1/https/repo1.maven.org/maven2/org/apache/logging/log4j/log4j-api/2.23.1/log4j-api-2.23.1.jar",
        "qref:v1:ec6c4a5c:/home/x/.cache/coursier/v1/https/repo1.maven.org/maven2/org/scala-lang/scala-compiler/2.13.14/scala-compiler-2.13.14.jar",
        "qref:v1:c69a5577:/home/x/.cache/coursier/v1/https/repo1.maven.org/maven2/com/lihaoyi/sourcecode_2.13/0.4.0/sourcecode_2.13-0.4.0.jar",
        "qref:v1:685c604d:/home/x/.cache/coursier/v1/https/repo1.maven.org/maven2/com/lihaoyi/mill-main-api_2.13/0.11.12/mill-main-api_2.13-0.11.12.jar",
        "qref:v1:fa805131:/home/x/.cache/coursier/v1/https/repo1.maven.org/maven2/org/scala-sbt/zinc-apiinfo_2.13/1.10.1/zinc-apiinfo_2.13-1.10.1.jar",
        "qref:v1:b385a871:/home/x/.cache/coursier/v1/https/repo1.maven.org/maven2/org/scala-sbt/zinc-classpath_2.13/1.10.1/zinc-classpath_2.13-1.10.1.jar",
        "qref:v1:dacbc910:/home/x/.cache/coursier/v1/https/repo1.maven.org/maven2/org/scala-sbt/compiler-interface/1.10.1/compiler-interface-1.10.1.jar",
        "qref:v1:5215ebd4:/home/x/.cache/coursier/v1/https/repo1.maven.org/maven2/org/scala-sbt/zinc-persist-core-assembly/1.10.1/zinc-persist-core-assembly-1.10.1.jar",
        "qref:v1:a2a253ad:/home/x/.cache/coursier/v1/https/repo1.maven.org/maven2/org/scala-lang/modules/scala-parallel-collections_2.13/0.2.0/scala-parallel-collections_2.13-0.2.0.jar",
        "qref:v1:ad7a793b:/home/x/.cache/coursier/v1/https/repo1.maven.org/maven2/org/scala-sbt/io_2.13/1.10.0/io_2.13-1.10.0.jar",
        "qref:v1:dcd0609f:/home/x/.cache/coursier/v1/https/repo1.maven.org/maven2/org/scala-sbt/util-logging_2.13/1.10.0/util-logging_2.13-1.10.0.jar",
        "qref:v1:d8df072d:/home/x/.cache/coursier/v1/https/repo1.maven.org/maven2/org/scala-sbt/util-relation_2.13/1.10.0/util-relation_2.13-1.10.0.jar",
        "qref:v1:84294563:/home/x/.cache/coursier/v1/https/repo1.maven.org/maven2/org/scala-sbt/sbinary_2.13/0.5.1/sbinary_2.13-0.5.1.jar",
        "qref:v1:0ad63504:/home/x/.cache/coursier/v1/https/repo1.maven.org/maven2/org/scala-lang/modules/scala-xml_2.13/2.3.0/scala-xml_2.13-2.3.0.jar",
        "qref:v1:e642dd47:/home/x/.cache/coursier/v1/https/repo1.maven.org/maven2/org/scala-sbt/launcher-interface/1.4.2/launcher-interface-1.4.2.jar",
        "qref:v1:92dd92c6:/home/x/.cache/coursier/v1/https/repo1.maven.org/maven2/org/scala-lang/modules/scala-parser-combinators_2.13/1.1.2/scala-parser-combinators_2.13-1.1.2.jar",
        "qref:v1:98c40c76:/home/x/.cache/coursier/v1/https/repo1.maven.org/maven2/net/openhft/zero-allocation-hashing/0.16/zero-allocation-hashing-0.16.jar",
        "qref:v1:5b768723:/home/x/.cache/coursier/v1/https/repo1.maven.org/maven2/org/scala-sbt/util-control_2.13/1.10.0/util-control_2.13-1.10.0.jar",
        "qref:v1:d0c019f0:/home/x/.cache/coursier/v1/https/repo1.maven.org/maven2/org/scala-lang/scala-reflect/2.13.14/scala-reflect-2.13.14.jar",
        "qref:v1:c3fede0e:/home/x/.cache/coursier/v1/https/repo1.maven.org/maven2/io/github/java-diff-utils/java-diff-utils/4.12/java-diff-utils-4.12.jar",
        "qref:v1:aa1d7c9b:/home/x/.cache/coursier/v1/https/repo1.maven.org/maven2/org/jline/jline/3.25.1/jline-3.25.1.jar",
        "qref:v1:93dd03ee:/home/x/.cache/coursier/v1/https/repo1.maven.org/maven2/net/java/dev/jna/jna/5.14.0/jna-5.14.0.jar",
        "qref:v1:6493eb9a:/home/x/.cache/coursier/v1/https/repo1.maven.org/maven2/com/lihaoyi/os-lib_2.13/0.10.3/os-lib_2.13-0.10.3.jar",
        "qref:v1:c96b9ea6:/home/x/.cache/coursier/v1/https/repo1.maven.org/maven2/com/lihaoyi/upickle_2.13/3.3.1/upickle_2.13-3.3.1.jar",
        "qref:v1:4996cefa:/home/x/.cache/coursier/v1/https/repo1.maven.org/maven2/com/lihaoyi/pprint_2.13/0.9.0/pprint_2.13-0.9.0.jar",
        "qref:v1:9c205598:/home/x/.cache/coursier/v1/https/repo1.maven.org/maven2/com/lihaoyi/fansi_2.13/0.5.0/fansi_2.13-0.5.0.jar",
        "qref:v1:9ca2e086:/home/x/.cache/coursier/v1/https/repo1.maven.org/maven2/org/scala-sbt/test-interface/1.0/test-interface-1.0.jar",
        "qref:v1:a5085fdc:/home/x/.cache/coursier/v1/https/repo1.maven.org/maven2/com/lihaoyi/mill-main-client/0.11.12/mill-main-client-0.11.12.jar",
        "qref:v1:376dd626:/home/x/.cache/coursier/v1/https/repo1.maven.org/maven2/org/scala-sbt/compiler-bridge_2.13/1.10.1/compiler-bridge_2.13-1.10.1.jar",
        "qref:v1:3a9151f9:/home/x/.cache/coursier/v1/https/repo1.maven.org/maven2/org/scala-sbt/util-interface/1.10.0/util-interface-1.10.0.jar",
        "qref:v1:247f0ea8:/home/x/.cache/coursier/v1/https/repo1.maven.org/maven2/com/swoval/file-tree-views/2.1.12/file-tree-views-2.1.12.jar",
        "qref:v1:6aff1cfc:/home/x/.cache/coursier/v1/https/repo1.maven.org/maven2/net/java/dev/jna/jna-platform/5.13.0/jna-platform-5.13.0.jar",
        "qref:v1:e60d6a36:/home/x/.cache/coursier/v1/https/repo1.maven.org/maven2/org/scala-sbt/collections_2.13/1.10.0/collections_2.13-1.10.0.jar",
        "qref:v1:573dea28:/home/x/.cache/coursier/v1/https/repo1.maven.org/maven2/org/scala-sbt/core-macros_2.13/1.10.0/core-macros_2.13-1.10.0.jar",
        "qref:v1:402a7777:/home/x/.cache/coursier/v1/https/repo1.maven.org/maven2/com/eed3si9n/sjson-new-core_2.13/0.9.1/sjson-new-core_2.13-0.9.1.jar",
        "qref:v1:80178d07:/home/x/.cache/coursier/v1/https/repo1.maven.org/maven2/org/scala-sbt/jline/jline/2.14.7-sbt-9c3b6aca11c57e339441442bbf58e550cdfecb79/jline-2.14.7-sbt-9c3b6aca11c57e339441442bbf58e550cdfecb79.jar",
        "qref:v1:d8fad3c8:/home/x/.cache/coursier/v1/https/repo1.maven.org/maven2/org/jline/jline-terminal/3.24.1/jline-terminal-3.24.1.jar",
        "qref:v1:67572b02:/home/x/.cache/coursier/v1/https/repo1.maven.org/maven2/org/jline/jline-terminal-jna/3.24.1/jline-terminal-jna-3.24.1.jar",
        "qref:v1:5ab194fb:/home/x/.cache/coursier/v1/https/repo1.maven.org/maven2/org/jline/jline-terminal-jansi/3.24.1/jline-terminal-jansi-3.24.1.jar",
        "qref:v1:2c5227c9:/home/x/.cache/coursier/v1/https/repo1.maven.org/maven2/com/lmax/disruptor/3.4.2/disruptor-3.4.2.jar",
        "qref:v1:4d954a18:/home/x/.cache/coursier/v1/https/repo1.maven.org/maven2/com/eed3si9n/sjson-new-scalajson_2.13/0.9.1/sjson-new-scalajson_2.13-0.9.1.jar",
        "qref:v1:1a6ac30d:/home/x/.cache/coursier/v1/https/repo1.maven.org/maven2/com/lihaoyi/geny_2.13/1.1.1/geny_2.13-1.1.1.jar",
        "qref:v1:ecb690c0:/home/x/.cache/coursier/v1/https/repo1.maven.org/maven2/com/lihaoyi/ujson_2.13/3.3.1/ujson_2.13-3.3.1.jar",
        "qref:v1:14082700:/home/x/.cache/coursier/v1/https/repo1.maven.org/maven2/com/lihaoyi/upack_2.13/3.3.1/upack_2.13-3.3.1.jar",
        "qref:v1:b2044931:/home/x/.cache/coursier/v1/https/repo1.maven.org/maven2/com/lihaoyi/upickle-implicits_2.13/3.3.1/upickle-implicits_2.13-3.3.1.jar",
        "qref:v1:09953df9:/home/x/.cache/coursier/v1/https/repo1.maven.org/maven2/org/scala-sbt/util-position_2.13/1.10.0/util-position_2.13-1.10.0.jar",
        "qref:v1:ce86dd5d:/home/x/.cache/coursier/v1/https/repo1.maven.org/maven2/org/fusesource/jansi/jansi/2.4.1/jansi-2.4.1.jar",
        "qref:v1:869b251e:/home/x/.cache/coursier/v1/https/repo1.maven.org/maven2/org/jline/jline-native/3.24.1/jline-native-3.24.1.jar",
        "qref:v1:3a618c7f:/home/x/.cache/coursier/v1/https/repo1.maven.org/maven2/com/eed3si9n/shaded-jawn-parser_2.13/0.9.1/shaded-jawn-parser_2.13-0.9.1.jar",
        "qref:v1:7f0c9e25:/home/x/.cache/coursier/v1/https/repo1.maven.org/maven2/com/eed3si9n/shaded-scalajson_2.13/1.0.0-M4/shaded-scalajson_2.13-1.0.0-M4.jar",
        "qref:v1:9002d91b:/home/x/.cache/coursier/v1/https/repo1.maven.org/maven2/com/lihaoyi/upickle-core_2.13/3.3.1/upickle-core_2.13-3.3.1.jar",
        "qref:v1:76c404d5:/home/x/.cache/coursier/v1/https/repo1.maven.org/maven2/com/kohlschutter/junixsocket/junixsocket-native-common/2.10.0/junixsocket-native-common-2.10.0.jar",
        "qref:v1:4f68fe1c:/home/x/.cache/coursier/v1/https/repo1.maven.org/maven2/com/kohlschutter/junixsocket/junixsocket-common/2.10.0/junixsocket-common-2.10.0.jar"
    ],
    "valueHash": 870075126,
    "inputsHash": -1615650809
}